<?xml version="1.0" encoding="UTF-8" standalone="no"?>
<svg
   xmlns:i="http://ns.adobe.com/AdobeIllustrator/10.0/"
   xmlns:dc="http://purl.org/dc/elements/1.1/"
   xmlns:cc="http://creativecommons.org/ns#"
   xmlns:rdf="http://www.w3.org/1999/02/22-rdf-syntax-ns#"
   xmlns:svg="http://www.w3.org/2000/svg"
   xmlns="http://www.w3.org/2000/svg"
   xmlns:sodipodi="http://sodipodi.sourceforge.net/DTD/sodipodi-0.dtd"
   xmlns:inkscape="http://www.inkscape.org/namespaces/inkscape"
   version="1.1"
   x="0px"
   y="0px"
   viewBox="0 0 100 125"
   style="enable-background:new 0 0 100 100;"
   xml:space="preserve"
   id="svg16"
   sodipodi:docname="maps.svg"
   inkscape:version="0.92.3 (2405546, 2018-03-11)"><metadata
     id="metadata22"><rdf:RDF><cc:Work
         rdf:about=""><dc:format>image/svg+xml</dc:format><dc:type
           rdf:resource="http://purl.org/dc/dcmitype/StillImage" /></cc:Work></rdf:RDF></metadata><defs
     id="defs20" /><sodipodi:namedview
     pagecolor="#ffffff"
     bordercolor="#666666"
     borderopacity="1"
     objecttolerance="10"
     gridtolerance="10"
     guidetolerance="10"
     inkscape:pageopacity="0"
     inkscape:pageshadow="2"
     inkscape:window-width="640"
     inkscape:window-height="480"
     id="namedview18"
     showgrid="false"
     inkscape:zoom="1.888"
     inkscape:cx="50"
     inkscape:cy="62.5"
     inkscape:window-x="0"
     inkscape:window-y="0"
     inkscape:window-maximized="0"
     inkscape:current-layer="svg16" /><switch
     id="switch10"><foreignObject
       requiredExtensions="http://ns.adobe.com/AdobeIllustrator/10.0/"
       x="0"
       y="0"
       width="1"
       height="1" /><g
       i:extraneous="self"
       id="g8"><g
         id="g6"><path
           d="M60.3,51.5V28l-1.1-2.2c-0.6-1.2-1.1-2.6-1.5-3.9H15.8c-4,0-7.3,3.3-7.3,7.3v61c0,4,3.3,7.3,7.3,7.3H76     c4,0,7.3-3.3,7.3-7.3V48.7c-1.5,1.7-3.7,2.7-6,2.8H60.3z M34.4,91.5H15.8c-0.7,0-1.3-0.6-1.3-1.3v-13h19.8V91.5z M34.4,71.2H14.5     V57.5h19.8V71.2z M34.4,51.5H14.5V29.2c0-0.7,0.6-1.3,1.3-1.3h3.4l14.7,15.9c0.3,0.3,0.4,0.7,0.4,1.1V51.5z M27.4,27.9h26.9v23.6     H40.4v-6.6c0-1.9-0.7-3.8-2-5.1L27.4,27.9z M58,91.5H40.4V77.2H58V91.5z M77.3,90.2c0,0.7-0.6,1.3-1.3,1.3H64V77.2h13.2V90.2z      M77.3,71.2H40.4V57.5h36.9V71.2z"
           id="path2" /><path
           d="M89.9,10.3c-3.5-7-12.1-9.8-19.1-6.3c-7,3.5-9.7,12.3-6.3,19.1c3.4,6.7,10.8,21.2,10.8,21.2c0.8,1.5,3,1.5,3.7,0     c0,0,8.8-17.2,10.8-21.2C91.9,19.1,92,14.5,89.9,10.3z M77.3,23.7c-3.7,0-6.7-3-6.7-6.7c0-3.7,3-6.8,6.7-6.8c3.7,0,6.8,3,6.8,6.8     C84,20.7,81,23.7,77.3,23.7z"
           id="path4" /></g></g></switch></svg>